// Jest Snapshot v1, https://goo.gl/fbAQLP

exports[`Functional Stateless Component creates components automatically 1`] = `
<span>
  FSC.CHILD
</span>
`;

exports[`Handles many components 1`] = `
<div
  className="thing"
>
  <div
    className="thing-auto"
  >
    Whoa, i never specified this!
  </div>
  <div
    className="thing-auto"
  >
    But sure enough, this component renders!
  </div>
  <div
    className="thing-auto"
  >
    This is useful for creating layout variants using
  </div>
  <div
    className="thing-auto"
  >
    similarly named components
  </div>
</div>
`;

exports[`PureComponent Thing creates children automatically 1`] = `"EXPECTED_TEXT"`;
